Django==4.0.1
psycopg2-binary==2.9.2
djangorestframework==3.13.0
django-filter==21.1
drf-nested-routers==0.93.4
drf-extra-fields==3.2.1
django-environ==0.8.1
django-cors-headers==3.10.1
django-fsm==2.8.0
redis==3.5.3
celery==5.2.3